DIGITALNA/Zadace/counter_vcd.vcd
$date
  Fri Apr 14 12:33:35 2023
$end
$version
  GHDL v0
$end
$timescale
  1 fs
$end
$scope module standard $end
$upscope $end
$scope module std_logic_1164 $end
$upscope $end
$scope module tb_counter $end
$var reg 1 ! clr $end
$var reg 1 " cls $end
$var reg 1 # clk $end
$var reg 1 $ gd $end
$var reg 4 % data_out[3:0] $end
$scope module hac $end
$var reg 1 & clr $end
$var reg 1 ' cls $end
$var reg 1 ( clk $end
$var reg 1 ) gd $end
$var reg 4 * data_out[3:0] $end
$comment present_state is not handled $end
$comment next_state is not handled $end
$upscope $end
$upscope $end
$enddefinitions $end
#0
0!
1"
1#
1$
b0000 %
0&
1'
1(
1)
b0000 *
#5000000
1!
0#
b0001 %
1&
0(
b0001 *
#10000000
1#
1(
#15000000
0#
b0010 %
0(
b0010 *
#20000000
1#
1(
#25000000
0#
b0011 %
0(
b0011 *
#30000000
1#
1(
#35000000
0#
b0100 %
0(
b0100 *
#40000000
1#
1(
#45000000
0#
b0101 %
0(
b0101 *
#50000000
1#
1(
#55000000
0#
b0110 %
0(
b0110 *
#60000000
1#
1(
#65000000
0#
b0111 %
0(
b0111 *
#70000000
1#
1(
#75000000
0#
b1000 %
0(
b1000 *
#80000000
1#
1(
#85000000
0#
b1001 %
0(
b1001 *
#90000000
1#
1(
#95000000
0#
b1010 %
0(
b1010 *
#100000000
1#
1(
#105000000
0#
b1011 %
0(
b1011 *
#110000000
1#
1(
#115000000
0#
b1100 %
0(
b1100 *
#120000000
1#
1(
#125000000
0#
b1101 %
0(
b1101 *
#130000000
1#
1(
#135000000
0#
b1110 %
0(
b1110 *
#140000000
1#
1(
#145000000
0#
b1111 %
0(
b1111 *
#150000000
1#
1(
#155000000
0#
b0000 %
0(
b0000 *
#160000000
1#
1(
#165000000
0#
b0001 %
0(
b0001 *
#170000000
0"
1#
0$
b1111 %
0'
1(
0)
b1111 *
#175000000
1"
0#
b1110 %
1'
0(
b1110 *
#180000000
1#
1(
#185000000
0#
b1101 %
0(
b1101 *
#190000000
1#
1(
#195000000
0#
b1100 %
0(
b1100 *
#200000000
1#
1(
#205000000
0#
b1011 %
0(
b1011 *
#210000000
1#
1(
#215000000
0#
b1010 %
0(
b1010 *
#220000000
1#
1(
#225000000
0#
b1001 %
0(
b1001 *
#230000000
1#
1(
#235000000
0#
b1000 %
0(
b1000 *
#240000000
1#
1(
#245000000
0#
b0111 %
0(
b0111 *
#250000000
1#
1(
#255000000
0#
b0110 %
0(
b0110 *
#260000000
1#
1(
#265000000
0#
b0101 %
0(
b0101 *
#270000000
1#
1(
#275000000
0#
b0100 %
0(
b0100 *
#280000000
1#
1(
#285000000
0#
b0011 %
0(
b0011 *
#290000000
1#
1(
#295000000
0#
b0010 %
0(
b0010 *
#300000000
1#
1(
#305000000
0#
b0001 %
0(
b0001 *
#310000000
1#
1(
#315000000
0#
b0000 %
0(
b0000 *
#320000000
1#
1(
#325000000
0#
b1111 %
0(
b1111 *
#330000000
1#
1(
#335000000
0#
b1110 %
0(
b1110 *
